<svg xmlns="http://www.w3.org/2000/svg" width="470" height="512" viewBox="0 0 470 512">
    <defs>
        <linearGradient id="a" x1="0%" y1="100%" y2="0%">
            <stop offset="0%" stop-color="#FFE53B"/>
            <stop offset="100%" stop-color="#FF2525"/>
        </linearGradient>
    </defs>
    <path fill="url(#a)" fill-rule="nonzero" d="M437.912 313.41c-14.362-24.415-27.927-47.475-27.927-107.386 0-91.422-70.475-166.68-159.95-174.332l.088-31.609L220.126 0l-.088 31.685c-89.51 7.616-160.024 82.892-160.024 174.34 0 59.911-13.565 82.971-27.927 107.386C16.321 340.213.019 367.928.019 436.006v14.999h173.986C174.005 484.638 201.367 512 235 512c33.633 0 60.995-27.362 60.995-60.995h173.986v-14.999c0-68.079-16.303-95.794-32.069-122.596zM235 482.002c-17.092 0-30.997-13.906-30.997-30.997h61.995c-.001 17.092-13.906 30.997-30.998 30.997zM30.324 421.006c2.089-48.984 14.523-70.121 27.62-92.386 15.766-26.802 32.068-54.517 32.068-122.596 0-79.946 65.042-144.988 144.988-144.988s144.988 65.042 144.988 144.988c0 68.078 16.303 95.793 32.068 122.595 13.097 22.264 25.531 43.402 27.62 92.387H30.324z"/>
</svg>
